<?xml version="1.0" encoding="utf-8"?>
<!-- Generator: Adobe Illustrator 16.0.0, SVG Export Plug-In . SVG Version: 6.00 Build 0)  -->
<!DOCTYPE svg PUBLIC "-//W3C//DTD SVG 1.1//EN" "http://www.w3.org/Graphics/SVG/1.1/DTD/svg11.dtd">
<svg version="1.1" id="Capa_1" xmlns="http://www.w3.org/2000/svg" xmlns:xlink="http://www.w3.org/1999/xlink" x="0px" y="0px"
	 width="13.636px" height="14.596px" viewBox="0 0 13.636 14.596" enable-background="new 0 0 13.636 14.596" xml:space="preserve">
<polygon fill="#9FA2A5" points="0,0 13.636,0 6.722,14.596 "/>
</svg>
