<?xml version="1.0" encoding="utf-8"?>
<!-- Generator: Adobe Illustrator 16.0.0, SVG Export Plug-In . SVG Version: 6.00 Build 0)  -->
<!DOCTYPE svg PUBLIC "-//W3C//DTD SVG 1.1//EN" "http://www.w3.org/Graphics/SVG/1.1/DTD/svg11.dtd">
<svg version="1.1" id="Capa_1" xmlns="http://www.w3.org/2000/svg" xmlns:xlink="http://www.w3.org/1999/xlink" x="0px" y="0px"
	 width="134px" height="90px" viewBox="0 0 134 90" enable-background="new 0 0 134 90" xml:space="preserve">
<g>
	
		<rect x="83.651" y="68.634" transform="matrix(0.7071 0.7071 -0.7071 0.7071 81.5383 -59.0832)" fill="#FFFFFF" width="56.875" height="0.5"/>
</g>
<polyline fill="none" stroke="#000000" stroke-width="0.5" points="1.034,0.464 43.667,0.464 91.98,48.775 "/>
</svg>
